{
    "type": "application",
    "source-directories": [
        "src"
    ],
    "elm-version": "0.19.1",
    "dependencies": {
        "direct": {
            "elm/browser": "1.0.2",
            "elm/core": "1.0.5",
            "elm/html": "1.0.0",
            "elm/time": "1.0.0",
            "elm/url": "1.0.0",
            "elm-community/html-extra": "3.4.0",
            "justinmimbs/time-extra": "1.1.0",
            "justinmimbs/timezone-data": "3.0.0",
            "mdgriffith/elm-ui": "1.1.7",
            "ryannhg/date-format": "2.3.0"
        },
        "indirect": {
            "elm/json": "1.1.3",
            "elm/parser": "1.1.0",
            "elm/virtual-dom": "1.0.2",
            "justinmimbs/date": "3.2.1"
        }
    },
    "test-dependencies": {
        "direct": {},
        "indirect": {}
    }
}
